{
	"version": "22",
	"credential": {
		"accessKey": "G4I3RZP3I2AS7EMWQPMZ",
		"secretKey": "xMzrrXMtnFEOP/K7MDFRA/bPxRfiCYEXOTOTOYEK"
	},
	"region": "",
	"browser": "on",
	"domain": "",
	"storageclass": {
		"standard": "",
		"rrs": ""
	},
	"notify": {
		"amqp": {
			"1": {
				"enable": false,
				"url": "",
				"exchange": "",
				"routingKey": "",
				"exchangeType": "",
				"deliveryMode": 0,
				"mandatory": false,
				"immediate": false,
				"durable": false,
				"internal": false,
				"noWait": false,
				"autoDeleted": false
			}
		},
		"nats": {
			"1": {
				"enable": false,
				"address": "",
				"subject": "",
				"username": "",
				"password": "",
				"token": "",
				"secure": false,
				"pingInterval": 0,
				"streaming": {
					"enable": false,
					"clusterID": "",
					"clientID": "",
					"async": false,
					"maxPubAcksInflight": 0
				}
			}
		},
		"elasticsearch": {
			"1": {
				"enable": false,
				"format": "",
				"url": "",
				"index": ""
			}
		},
		"redis": {
			"1": {
				"enable": false,
				"format": "",
				"address": "",
				"password": "",
				"key": ""
			}
		},
		"postgresql": {
			"1": {
				"enable": false,
				"format": "",
				"connectionString": "",
				"table": "",
				"host": "",
				"port": "",
				"user": "",
				"password": "",
				"database": ""
			}
		},
		"kafka": {
			"1": {
				"enable": false,
				"brokers": null,
				"topic": ""
			}
		},
		"webhook": {
			"1": {
				"enable": false,
				"endpoint": ""
			}
		},
		"mysql": {
			"1": {
				"enable": false,
				"format": "",
				"dsnString": "",
				"table": "",
				"host": "",
				"port": "",
				"user": "",
				"password": "",
				"database": ""
			}
		},
		"mqtt": {
			"1": {
				"enable": false,
				"broker": "",
				"topic": "",
				"qos": 0,
				"clientId": "",
				"username": "",
				"password": ""
			}
		}
	}
}
